%!PS-Adobe-2.0 EPSF-2.0
%%Title: download-finishtime-250-400.eps
%%Creator: gnuplot 5.0 patchlevel 2
%%CreationDate: Tue Apr 26 11:04:52 2016
%%DocumentFonts: (atend)
%%BoundingBox: 50 50 770 302
%%EndComments
%%BeginProlog
/gnudict 256 dict def
gnudict begin
%
% The following true/false flags may be edited by hand if desired.
% The unit line width and grayscale image gamma correction may also be changed.
%
/Color true def
/Blacktext false def
/Solid false def
/Dashlength 3 def
/Landscape false def
/Level1 false def
/Level3 false def
/Rounded false def
/ClipToBoundingBox false def
/SuppressPDFMark false def
/TransparentPatterns false def
/gnulinewidth 15.000 def
/userlinewidth gnulinewidth def
/Gamma 1.0 def
/BackgroundColor {-1.000 -1.000 -1.000} def
%
/vshift -66 def
/dl1 {
  10.0 Dashlength userlinewidth gnulinewidth div mul mul mul
  Rounded { currentlinewidth 0.75 mul sub dup 0 le { pop 0.01 } if } if
} def
/dl2 {
  10.0 Dashlength userlinewidth gnulinewidth div mul mul mul
  Rounded { currentlinewidth 0.75 mul add } if
} def
/hpt_ 31.5 def
/vpt_ 31.5 def
/hpt hpt_ def
/vpt vpt_ def
/doclip {
  ClipToBoundingBox {
    newpath 50 50 moveto 770 50 lineto 770 302 lineto 50 302 lineto closepath
    clip
  } if
} def
%
% Gnuplot Prolog Version 5.1 (Oct 2015)
%
%/SuppressPDFMark true def
%
/M {moveto} bind def
/L {lineto} bind def
/R {rmoveto} bind def
/V {rlineto} bind def
/N {newpath moveto} bind def
/Z {closepath} bind def
/C {setrgbcolor} bind def
/f {rlineto fill} bind def
/g {setgray} bind def
/Gshow {show} def   % May be redefined later in the file to support UTF-8
/vpt2 vpt 2 mul def
/hpt2 hpt 2 mul def
/Lshow {currentpoint stroke M 0 vshift R 
	Blacktext {gsave 0 setgray textshow grestore} {textshow} ifelse} def
/Rshow {currentpoint stroke M dup stringwidth pop neg vshift R
	Blacktext {gsave 0 setgray textshow grestore} {textshow} ifelse} def
/Cshow {currentpoint stroke M dup stringwidth pop -2 div vshift R 
	Blacktext {gsave 0 setgray textshow grestore} {textshow} ifelse} def
/UP {dup vpt_ mul /vpt exch def hpt_ mul /hpt exch def
  /hpt2 hpt 2 mul def /vpt2 vpt 2 mul def} def
/DL {Color {setrgbcolor Solid {pop []} if 0 setdash}
 {pop pop pop 0 setgray Solid {pop []} if 0 setdash} ifelse} def
/BL {stroke userlinewidth 2 mul setlinewidth
	Rounded {1 setlinejoin 1 setlinecap} if} def
/AL {stroke userlinewidth 2 div setlinewidth
	Rounded {1 setlinejoin 1 setlinecap} if} def
/UL {dup gnulinewidth mul /userlinewidth exch def
	dup 1 lt {pop 1} if 10 mul /udl exch def} def
/PL {stroke userlinewidth setlinewidth
	Rounded {1 setlinejoin 1 setlinecap} if} def
3.8 setmiterlimit
% Classic Line colors (version 5.0)
/LCw {1 1 1} def
/LCb {0 0 0} def
/LCa {0 0 0} def
/LC0 {1 0 0} def
/LC1 {0 1 0} def
/LC2 {0 0 1} def
/LC3 {1 0 1} def
/LC4 {0 1 1} def
/LC5 {1 1 0} def
/LC6 {0 0 0} def
/LC7 {1 0.3 0} def
/LC8 {0.5 0.5 0.5} def
% Default dash patterns (version 5.0)
/LTB {BL [] LCb DL} def
/LTw {PL [] 1 setgray} def
/LTb {PL [] LCb DL} def
/LTa {AL [1 udl mul 2 udl mul] 0 setdash LCa setrgbcolor} def
/LT0 {PL [] LC0 DL} def
/LT1 {PL [2 dl1 3 dl2] LC1 DL} def
/LT2 {PL [1 dl1 1.5 dl2] LC2 DL} def
/LT3 {PL [6 dl1 2 dl2 1 dl1 2 dl2] LC3 DL} def
/LT4 {PL [1 dl1 2 dl2 6 dl1 2 dl2 1 dl1 2 dl2] LC4 DL} def
/LT5 {PL [4 dl1 2 dl2] LC5 DL} def
/LT6 {PL [1.5 dl1 1.5 dl2 1.5 dl1 1.5 dl2 1.5 dl1 6 dl2] LC6 DL} def
/LT7 {PL [3 dl1 3 dl2 1 dl1 3 dl2] LC7 DL} def
/LT8 {PL [2 dl1 2 dl2 2 dl1 6 dl2] LC8 DL} def
/SL {[] 0 setdash} def
/Pnt {stroke [] 0 setdash gsave 1 setlinecap M 0 0 V stroke grestore} def
/Dia {stroke [] 0 setdash 2 copy vpt add M
  hpt neg vpt neg V hpt vpt neg V
  hpt vpt V hpt neg vpt V closepath stroke
  Pnt} def
/Pls {stroke [] 0 setdash vpt sub M 0 vpt2 V
  currentpoint stroke M
  hpt neg vpt neg R hpt2 0 V stroke
 } def
/Box {stroke [] 0 setdash 2 copy exch hpt sub exch vpt add M
  0 vpt2 neg V hpt2 0 V 0 vpt2 V
  hpt2 neg 0 V closepath stroke
  Pnt} def
/Crs {stroke [] 0 setdash exch hpt sub exch vpt add M
  hpt2 vpt2 neg V currentpoint stroke M
  hpt2 neg 0 R hpt2 vpt2 V stroke} def
/TriU {stroke [] 0 setdash 2 copy vpt 1.12 mul add M
  hpt neg vpt -1.62 mul V
  hpt 2 mul 0 V
  hpt neg vpt 1.62 mul V closepath stroke
  Pnt} def
/Star {2 copy Pls Crs} def
/BoxF {stroke [] 0 setdash exch hpt sub exch vpt add M
  0 vpt2 neg V hpt2 0 V 0 vpt2 V
  hpt2 neg 0 V closepath fill} def
/TriUF {stroke [] 0 setdash vpt 1.12 mul add M
  hpt neg vpt -1.62 mul V
  hpt 2 mul 0 V
  hpt neg vpt 1.62 mul V closepath fill} def
/TriD {stroke [] 0 setdash 2 copy vpt 1.12 mul sub M
  hpt neg vpt 1.62 mul V
  hpt 2 mul 0 V
  hpt neg vpt -1.62 mul V closepath stroke
  Pnt} def
/TriDF {stroke [] 0 setdash vpt 1.12 mul sub M
  hpt neg vpt 1.62 mul V
  hpt 2 mul 0 V
  hpt neg vpt -1.62 mul V closepath fill} def
/DiaF {stroke [] 0 setdash vpt add M
  hpt neg vpt neg V hpt vpt neg V
  hpt vpt V hpt neg vpt V closepath fill} def
/Pent {stroke [] 0 setdash 2 copy gsave
  translate 0 hpt M 4 {72 rotate 0 hpt L} repeat
  closepath stroke grestore Pnt} def
/PentF {stroke [] 0 setdash gsave
  translate 0 hpt M 4 {72 rotate 0 hpt L} repeat
  closepath fill grestore} def
/Circle {stroke [] 0 setdash 2 copy
  hpt 0 360 arc stroke Pnt} def
/CircleF {stroke [] 0 setdash hpt 0 360 arc fill} def
/C0 {BL [] 0 setdash 2 copy moveto vpt 90 450 arc} bind def
/C1 {BL [] 0 setdash 2 copy moveto
	2 copy vpt 0 90 arc closepath fill
	vpt 0 360 arc closepath} bind def
/C2 {BL [] 0 setdash 2 copy moveto
	2 copy vpt 90 180 arc closepath fill
	vpt 0 360 arc closepath} bind def
/C3 {BL [] 0 setdash 2 copy moveto
	2 copy vpt 0 180 arc closepath fill
	vpt 0 360 arc closepath} bind def
/C4 {BL [] 0 setdash 2 copy moveto
	2 copy vpt 180 270 arc closepath fill
	vpt 0 360 arc closepath} bind def
/C5 {BL [] 0 setdash 2 copy moveto
	2 copy vpt 0 90 arc
	2 copy moveto
	2 copy vpt 180 270 arc closepath fill
	vpt 0 360 arc} bind def
/C6 {BL [] 0 setdash 2 copy moveto
	2 copy vpt 90 270 arc closepath fill
	vpt 0 360 arc closepath} bind def
/C7 {BL [] 0 setdash 2 copy moveto
	2 copy vpt 0 270 arc closepath fill
	vpt 0 360 arc closepath} bind def
/C8 {BL [] 0 setdash 2 copy moveto
	2 copy vpt 270 360 arc closepath fill
	vpt 0 360 arc closepath} bind def
/C9 {BL [] 0 setdash 2 copy moveto
	2 copy vpt 270 450 arc closepath fill
	vpt 0 360 arc closepath} bind def
/C10 {BL [] 0 setdash 2 copy 2 copy moveto vpt 270 360 arc closepath fill
	2 copy moveto
	2 copy vpt 90 180 arc closepath fill
	vpt 0 360 arc closepath} bind def
/C11 {BL [] 0 setdash 2 copy moveto
	2 copy vpt 0 180 arc closepath fill
	2 copy moveto
	2 copy vpt 270 360 arc closepath fill
	vpt 0 360 arc closepath} bind def
/C12 {BL [] 0 setdash 2 copy moveto
	2 copy vpt 180 360 arc closepath fill
	vpt 0 360 arc closepath} bind def
/C13 {BL [] 0 setdash 2 copy moveto
	2 copy vpt 0 90 arc closepath fill
	2 copy moveto
	2 copy vpt 180 360 arc closepath fill
	vpt 0 360 arc closepath} bind def
/C14 {BL [] 0 setdash 2 copy moveto
	2 copy vpt 90 360 arc closepath fill
	vpt 0 360 arc} bind def
/C15 {BL [] 0 setdash 2 copy vpt 0 360 arc closepath fill
	vpt 0 360 arc closepath} bind def
/Rec {newpath 4 2 roll moveto 1 index 0 rlineto 0 exch rlineto
	neg 0 rlineto closepath} bind def
/Square {dup Rec} bind def
/Bsquare {vpt sub exch vpt sub exch vpt2 Square} bind def
/S0 {BL [] 0 setdash 2 copy moveto 0 vpt rlineto BL Bsquare} bind def
/S1 {BL [] 0 setdash 2 copy vpt Square fill Bsquare} bind def
/S2 {BL [] 0 setdash 2 copy exch vpt sub exch vpt Square fill Bsquare} bind def
/S3 {BL [] 0 setdash 2 copy exch vpt sub exch vpt2 vpt Rec fill Bsquare} bind def
/S4 {BL [] 0 setdash 2 copy exch vpt sub exch vpt sub vpt Square fill Bsquare} bind def
/S5 {BL [] 0 setdash 2 copy 2 copy vpt Square fill
	exch vpt sub exch vpt sub vpt Square fill Bsquare} bind def
/S6 {BL [] 0 setdash 2 copy exch vpt sub exch vpt sub vpt vpt2 Rec fill Bsquare} bind def
/S7 {BL [] 0 setdash 2 copy exch vpt sub exch vpt sub vpt vpt2 Rec fill
	2 copy vpt Square fill Bsquare} bind def
/S8 {BL [] 0 setdash 2 copy vpt sub vpt Square fill Bsquare} bind def
/S9 {BL [] 0 setdash 2 copy vpt sub vpt vpt2 Rec fill Bsquare} bind def
/S10 {BL [] 0 setdash 2 copy vpt sub vpt Square fill 2 copy exch vpt sub exch vpt Square fill
	Bsquare} bind def
/S11 {BL [] 0 setdash 2 copy vpt sub vpt Square fill 2 copy exch vpt sub exch vpt2 vpt Rec fill
	Bsquare} bind def
/S12 {BL [] 0 setdash 2 copy exch vpt sub exch vpt sub vpt2 vpt Rec fill Bsquare} bind def
/S13 {BL [] 0 setdash 2 copy exch vpt sub exch vpt sub vpt2 vpt Rec fill
	2 copy vpt Square fill Bsquare} bind def
/S14 {BL [] 0 setdash 2 copy exch vpt sub exch vpt sub vpt2 vpt Rec fill
	2 copy exch vpt sub exch vpt Square fill Bsquare} bind def
/S15 {BL [] 0 setdash 2 copy Bsquare fill Bsquare} bind def
/D0 {gsave translate 45 rotate 0 0 S0 stroke grestore} bind def
/D1 {gsave translate 45 rotate 0 0 S1 stroke grestore} bind def
/D2 {gsave translate 45 rotate 0 0 S2 stroke grestore} bind def
/D3 {gsave translate 45 rotate 0 0 S3 stroke grestore} bind def
/D4 {gsave translate 45 rotate 0 0 S4 stroke grestore} bind def
/D5 {gsave translate 45 rotate 0 0 S5 stroke grestore} bind def
/D6 {gsave translate 45 rotate 0 0 S6 stroke grestore} bind def
/D7 {gsave translate 45 rotate 0 0 S7 stroke grestore} bind def
/D8 {gsave translate 45 rotate 0 0 S8 stroke grestore} bind def
/D9 {gsave translate 45 rotate 0 0 S9 stroke grestore} bind def
/D10 {gsave translate 45 rotate 0 0 S10 stroke grestore} bind def
/D11 {gsave translate 45 rotate 0 0 S11 stroke grestore} bind def
/D12 {gsave translate 45 rotate 0 0 S12 stroke grestore} bind def
/D13 {gsave translate 45 rotate 0 0 S13 stroke grestore} bind def
/D14 {gsave translate 45 rotate 0 0 S14 stroke grestore} bind def
/D15 {gsave translate 45 rotate 0 0 S15 stroke grestore} bind def
/DiaE {stroke [] 0 setdash vpt add M
  hpt neg vpt neg V hpt vpt neg V
  hpt vpt V hpt neg vpt V closepath stroke} def
/BoxE {stroke [] 0 setdash exch hpt sub exch vpt add M
  0 vpt2 neg V hpt2 0 V 0 vpt2 V
  hpt2 neg 0 V closepath stroke} def
/TriUE {stroke [] 0 setdash vpt 1.12 mul add M
  hpt neg vpt -1.62 mul V
  hpt 2 mul 0 V
  hpt neg vpt 1.62 mul V closepath stroke} def
/TriDE {stroke [] 0 setdash vpt 1.12 mul sub M
  hpt neg vpt 1.62 mul V
  hpt 2 mul 0 V
  hpt neg vpt -1.62 mul V closepath stroke} def
/PentE {stroke [] 0 setdash gsave
  translate 0 hpt M 4 {72 rotate 0 hpt L} repeat
  closepath stroke grestore} def
/CircE {stroke [] 0 setdash 
  hpt 0 360 arc stroke} def
/Opaque {gsave closepath 1 setgray fill grestore 0 setgray closepath} def
/DiaW {stroke [] 0 setdash vpt add M
  hpt neg vpt neg V hpt vpt neg V
  hpt vpt V hpt neg vpt V Opaque stroke} def
/BoxW {stroke [] 0 setdash exch hpt sub exch vpt add M
  0 vpt2 neg V hpt2 0 V 0 vpt2 V
  hpt2 neg 0 V Opaque stroke} def
/TriUW {stroke [] 0 setdash vpt 1.12 mul add M
  hpt neg vpt -1.62 mul V
  hpt 2 mul 0 V
  hpt neg vpt 1.62 mul V Opaque stroke} def
/TriDW {stroke [] 0 setdash vpt 1.12 mul sub M
  hpt neg vpt 1.62 mul V
  hpt 2 mul 0 V
  hpt neg vpt -1.62 mul V Opaque stroke} def
/PentW {stroke [] 0 setdash gsave
  translate 0 hpt M 4 {72 rotate 0 hpt L} repeat
  Opaque stroke grestore} def
/CircW {stroke [] 0 setdash 
  hpt 0 360 arc Opaque stroke} def
/BoxFill {gsave Rec 1 setgray fill grestore} def
/Density {
  /Fillden exch def
  currentrgbcolor
  /ColB exch def /ColG exch def /ColR exch def
  /ColR ColR Fillden mul Fillden sub 1 add def
  /ColG ColG Fillden mul Fillden sub 1 add def
  /ColB ColB Fillden mul Fillden sub 1 add def
  ColR ColG ColB setrgbcolor} def
/BoxColFill {gsave Rec PolyFill} def
/PolyFill {gsave Density fill grestore grestore} def
/h {rlineto rlineto rlineto gsave closepath fill grestore} bind def
%
% PostScript Level 1 Pattern Fill routine for rectangles
% Usage: x y w h s a XX PatternFill
%	x,y = lower left corner of box to be filled
%	w,h = width and height of box
%	  a = angle in degrees between lines and x-axis
%	 XX = 0/1 for no/yes cross-hatch
%
/PatternFill {gsave /PFa [ 9 2 roll ] def
  PFa 0 get PFa 2 get 2 div add PFa 1 get PFa 3 get 2 div add translate
  PFa 2 get -2 div PFa 3 get -2 div PFa 2 get PFa 3 get Rec
  TransparentPatterns {} {gsave 1 setgray fill grestore} ifelse
  clip
  currentlinewidth 0.5 mul setlinewidth
  /PFs PFa 2 get dup mul PFa 3 get dup mul add sqrt def
  0 0 M PFa 5 get rotate PFs -2 div dup translate
  0 1 PFs PFa 4 get div 1 add floor cvi
	{PFa 4 get mul 0 M 0 PFs V} for
  0 PFa 6 get ne {
	0 1 PFs PFa 4 get div 1 add floor cvi
	{PFa 4 get mul 0 2 1 roll M PFs 0 V} for
 } if
  stroke grestore} def
%
/languagelevel where
 {pop languagelevel} {1} ifelse
dup 2 lt
	{/InterpretLevel1 true def
	 /InterpretLevel3 false def}
	{/InterpretLevel1 Level1 def
	 2 gt
	    {/InterpretLevel3 Level3 def}
	    {/InterpretLevel3 false def}
	 ifelse }
 ifelse
%
% PostScript level 2 pattern fill definitions
%
/Level2PatternFill {
/Tile8x8 {/PaintType 2 /PatternType 1 /TilingType 1 /BBox [0 0 8 8] /XStep 8 /YStep 8}
	bind def
/KeepColor {currentrgbcolor [/Pattern /DeviceRGB] setcolorspace} bind def
<< Tile8x8
 /PaintProc {0.5 setlinewidth pop 0 0 M 8 8 L 0 8 M 8 0 L stroke} 
>> matrix makepattern
/Pat1 exch def
<< Tile8x8
 /PaintProc {0.5 setlinewidth pop 0 0 M 8 8 L 0 8 M 8 0 L stroke
	0 4 M 4 8 L 8 4 L 4 0 L 0 4 L stroke}
>> matrix makepattern
/Pat2 exch def
<< Tile8x8
 /PaintProc {0.5 setlinewidth pop 0 0 M 0 8 L
	8 8 L 8 0 L 0 0 L fill}
>> matrix makepattern
/Pat3 exch def
<< Tile8x8
 /PaintProc {0.5 setlinewidth pop -4 8 M 8 -4 L
	0 12 M 12 0 L stroke}
>> matrix makepattern
/Pat4 exch def
<< Tile8x8
 /PaintProc {0.5 setlinewidth pop -4 0 M 8 12 L
	0 -4 M 12 8 L stroke}
>> matrix makepattern
/Pat5 exch def
<< Tile8x8
 /PaintProc {0.5 setlinewidth pop -2 8 M 4 -4 L
	0 12 M 8 -4 L 4 12 M 10 0 L stroke}
>> matrix makepattern
/Pat6 exch def
<< Tile8x8
 /PaintProc {0.5 setlinewidth pop -2 0 M 4 12 L
	0 -4 M 8 12 L 4 -4 M 10 8 L stroke}
>> matrix makepattern
/Pat7 exch def
<< Tile8x8
 /PaintProc {0.5 setlinewidth pop 8 -2 M -4 4 L
	12 0 M -4 8 L 12 4 M 0 10 L stroke}
>> matrix makepattern
/Pat8 exch def
<< Tile8x8
 /PaintProc {0.5 setlinewidth pop 0 -2 M 12 4 L
	-4 0 M 12 8 L -4 4 M 8 10 L stroke}
>> matrix makepattern
/Pat9 exch def
/Pattern1 {PatternBgnd KeepColor Pat1 setpattern} bind def
/Pattern2 {PatternBgnd KeepColor Pat2 setpattern} bind def
/Pattern3 {PatternBgnd KeepColor Pat3 setpattern} bind def
/Pattern4 {PatternBgnd KeepColor Landscape {Pat5} {Pat4} ifelse setpattern} bind def
/Pattern5 {PatternBgnd KeepColor Landscape {Pat4} {Pat5} ifelse setpattern} bind def
/Pattern6 {PatternBgnd KeepColor Landscape {Pat9} {Pat6} ifelse setpattern} bind def
/Pattern7 {PatternBgnd KeepColor Landscape {Pat8} {Pat7} ifelse setpattern} bind def
} def
%
%
%End of PostScript Level 2 code
%
/PatternBgnd {
  TransparentPatterns {} {gsave 1 setgray fill grestore} ifelse
} def
%
% Substitute for Level 2 pattern fill codes with
% grayscale if Level 2 support is not selected.
%
/Level1PatternFill {
/Pattern1 {0.250 Density} bind def
/Pattern2 {0.500 Density} bind def
/Pattern3 {0.750 Density} bind def
/Pattern4 {0.125 Density} bind def
/Pattern5 {0.375 Density} bind def
/Pattern6 {0.625 Density} bind def
/Pattern7 {0.875 Density} bind def
} def
%
% Now test for support of Level 2 code
%
Level1 {Level1PatternFill} {Level2PatternFill} ifelse
%
/Symbol-Oblique /Symbol findfont [1 0 .167 1 0 0] makefont
dup length dict begin {1 index /FID eq {pop pop} {def} ifelse} forall
currentdict end definefont pop
%
/MFshow {
   { dup 5 get 3 ge
     { 5 get 3 eq {gsave} {grestore} ifelse }
     {dup dup 0 get findfont exch 1 get scalefont setfont
     [ currentpoint ] exch dup 2 get 0 exch R dup 5 get 2 ne {dup dup 6
     get exch 4 get {textshow} {stringwidth pop 0 R} ifelse }if dup 5 get 0 eq
     {dup 3 get {2 get neg 0 exch R pop} {pop aload pop M} ifelse} {dup 5
     get 1 eq {dup 2 get exch dup 3 get exch 6 get stringwidth pop -2 div
     dup 0 R} {dup 6 get stringwidth pop -2 div 0 R 6 get
     textshow 2 index {aload pop M neg 3 -1 roll neg R pop pop} {pop pop pop
     pop aload pop M} ifelse }ifelse }ifelse }
     ifelse }
   forall} def
/Gswidth {dup type /stringtype eq {stringwidth} {pop (n) stringwidth} ifelse} def
/MFwidth {0 exch { dup 5 get 3 ge { 5 get 3 eq { 0 } { pop } ifelse }
 {dup 3 get{dup dup 0 get findfont exch 1 get scalefont setfont
     6 get Gswidth pop add} {pop} ifelse} ifelse} forall} def
/MLshow { currentpoint stroke M
  0 exch R
  Blacktext {gsave 0 setgray MFshow grestore} {MFshow} ifelse } bind def
/MRshow { currentpoint stroke M
  exch dup MFwidth neg 3 -1 roll R
  Blacktext {gsave 0 setgray MFshow grestore} {MFshow} ifelse } bind def
/MCshow { currentpoint stroke M
  exch dup MFwidth -2 div 3 -1 roll R
  Blacktext {gsave 0 setgray MFshow grestore} {MFshow} ifelse } bind def
/XYsave    { [( ) 1 2 true false 3 ()] } bind def
/XYrestore { [( ) 1 2 true false 4 ()] } bind def
Level1 SuppressPDFMark or 
{} {
/SDict 10 dict def
systemdict /pdfmark known not {
  userdict /pdfmark systemdict /cleartomark get put
} if
SDict begin [
  /Title (download-finishtime-250-400.eps)
  /Subject (gnuplot plot)
  /Creator (gnuplot 5.0 patchlevel 2)
  /Author (nat)
%  /Producer (gnuplot)
%  /Keywords ()
  /CreationDate (Tue Apr 26 11:04:52 2016)
  /DOCINFO pdfmark
end
} ifelse
%
% Support for boxed text - Ethan A Merritt May 2005
%
/InitTextBox { userdict /TBy2 3 -1 roll put userdict /TBx2 3 -1 roll put
           userdict /TBy1 3 -1 roll put userdict /TBx1 3 -1 roll put
	   /Boxing true def } def
/ExtendTextBox { Boxing
    { gsave dup false charpath pathbbox
      dup TBy2 gt {userdict /TBy2 3 -1 roll put} {pop} ifelse
      dup TBx2 gt {userdict /TBx2 3 -1 roll put} {pop} ifelse
      dup TBy1 lt {userdict /TBy1 3 -1 roll put} {pop} ifelse
      dup TBx1 lt {userdict /TBx1 3 -1 roll put} {pop} ifelse
      grestore } if } def
/PopTextBox { newpath TBx1 TBxmargin sub TBy1 TBymargin sub M
               TBx1 TBxmargin sub TBy2 TBymargin add L
	       TBx2 TBxmargin add TBy2 TBymargin add L
	       TBx2 TBxmargin add TBy1 TBymargin sub L closepath } def
/DrawTextBox { PopTextBox stroke /Boxing false def} def
/FillTextBox { gsave PopTextBox 1 1 1 setrgbcolor fill grestore /Boxing false def} def
0 0 0 0 InitTextBox
/TBxmargin 20 def
/TBymargin 20 def
/Boxing false def
/textshow { ExtendTextBox Gshow } def
%
% redundant definitions for compatibility with prologue.ps older than 5.0.2
/LTB {BL [] LCb DL} def
/LTb {PL [] LCb DL} def
end
%%EndProlog
%%Page: 1 1
gnudict begin
gsave
doclip
50 50 translate
0.050 0.050 scale
0 setgray
newpath
(Arial) findfont 200 scalefont setfont
BackgroundColor 0 lt 3 1 roll 0 lt exch 0 lt or or not {BackgroundColor C 1.000 0 0 14400.00 5040.00 BoxColFill} if
1.000 UL
LTb
0.00 0.00 0.00 C 0.500 UL
LTa
0.50 0.50 0.50 C 980 1000 M
12139 0 V
stroke
1.000 UL
LTb
0.00 0.00 0.00 C 980 1000 M
63 0 V
stroke
860 1000 M
[ [(Arial) 200.0 0.0 true true 0 ( 0)]
] -66.7 MRshow
1.000 UL
LTb
0.00 0.00 0.00 C 0.500 UL
LTa
0.50 0.50 0.50 C 980 1760 M
12139 0 V
stroke
1.000 UL
LTb
0.00 0.00 0.00 C 980 1760 M
63 0 V
stroke
860 1760 M
[ [(Arial) 200.0 0.0 true true 0 ( 20)]
] -66.7 MRshow
1.000 UL
LTb
0.00 0.00 0.00 C 0.500 UL
LTa
0.50 0.50 0.50 C 980 2520 M
12139 0 V
stroke
1.000 UL
LTb
0.00 0.00 0.00 C 980 2520 M
63 0 V
stroke
860 2520 M
[ [(Arial) 200.0 0.0 true true 0 ( 40)]
] -66.7 MRshow
1.000 UL
LTb
0.00 0.00 0.00 C 0.500 UL
LTa
0.50 0.50 0.50 C 980 3279 M
12139 0 V
stroke
1.000 UL
LTb
0.00 0.00 0.00 C 980 3279 M
63 0 V
stroke
860 3279 M
[ [(Arial) 200.0 0.0 true true 0 ( 60)]
] -66.7 MRshow
1.000 UL
LTb
0.00 0.00 0.00 C 0.500 UL
LTa
0.50 0.50 0.50 C 980 4039 M
12139 0 V
stroke
1.000 UL
LTb
0.00 0.00 0.00 C 980 4039 M
63 0 V
stroke
860 4039 M
[ [(Arial) 200.0 0.0 true true 0 ( 80)]
] -66.7 MRshow
1.000 UL
LTb
0.00 0.00 0.00 C 0.500 UL
LTa
0.50 0.50 0.50 C 980 4799 M
12139 0 V
stroke
1.000 UL
LTb
0.00 0.00 0.00 C 980 4799 M
63 0 V
stroke
860 4799 M
[ [(Arial) 200.0 0.0 true true 0 ( 100)]
] -66.7 MRshow
1.000 UL
LTb
0.00 0.00 0.00 C 0.500 UL
LTa
0.50 0.50 0.50 C 1359 1000 M
0 3799 V
stroke
1.000 UL
LTb
0.00 0.00 0.00 C 1359 1000 M
0 63 V
0 3736 R
0 -63 V
stroke
1359 800 M
[ [(Arial) 200.0 0.0 true true 0 ( 750)]
] -66.7 MCshow
1.000 UL
LTb
0.00 0.00 0.00 C 0.500 UL
LTa
0.50 0.50 0.50 C 2118 1000 M
0 3799 V
stroke
1.000 UL
LTb
0.00 0.00 0.00 C 2118 1000 M
0 63 V
0 3736 R
0 -63 V
stroke
2118 800 M
[ [(Arial) 200.0 0.0 true true 0 ( 780)]
] -66.7 MCshow
1.000 UL
LTb
0.00 0.00 0.00 C 0.500 UL
LTa
0.50 0.50 0.50 C 2877 1000 M
0 3799 V
stroke
1.000 UL
LTb
0.00 0.00 0.00 C 2877 1000 M
0 63 V
0 3736 R
0 -63 V
stroke
2877 800 M
[ [(Arial) 200.0 0.0 true true 0 ( 810)]
] -66.7 MCshow
1.000 UL
LTb
0.00 0.00 0.00 C 0.500 UL
LTa
0.50 0.50 0.50 C 3635 1000 M
0 3799 V
stroke
1.000 UL
LTb
0.00 0.00 0.00 C 3635 1000 M
0 63 V
0 3736 R
0 -63 V
stroke
3635 800 M
[ [(Arial) 200.0 0.0 true true 0 ( 840)]
] -66.7 MCshow
1.000 UL
LTb
0.00 0.00 0.00 C 0.500 UL
LTa
0.50 0.50 0.50 C 4394 1000 M
0 3799 V
stroke
1.000 UL
LTb
0.00 0.00 0.00 C 4394 1000 M
0 63 V
0 3736 R
0 -63 V
stroke
4394 800 M
[ [(Arial) 200.0 0.0 true true 0 ( 870)]
] -66.7 MCshow
1.000 UL
LTb
0.00 0.00 0.00 C 0.500 UL
LTa
0.50 0.50 0.50 C 5153 1000 M
0 3799 V
stroke
1.000 UL
LTb
0.00 0.00 0.00 C 5153 1000 M
0 63 V
0 3736 R
0 -63 V
stroke
5153 800 M
[ [(Arial) 200.0 0.0 true true 0 ( 900)]
] -66.7 MCshow
1.000 UL
LTb
0.00 0.00 0.00 C 0.500 UL
LTa
0.50 0.50 0.50 C 5911 1000 M
0 3799 V
stroke
1.000 UL
LTb
0.00 0.00 0.00 C 5911 1000 M
0 63 V
0 3736 R
0 -63 V
stroke
5911 800 M
[ [(Arial) 200.0 0.0 true true 0 ( 930)]
] -66.7 MCshow
1.000 UL
LTb
0.00 0.00 0.00 C 0.500 UL
LTa
0.50 0.50 0.50 C 6670 1000 M
0 3799 V
stroke
1.000 UL
LTb
0.00 0.00 0.00 C 6670 1000 M
0 63 V
0 3736 R
0 -63 V
stroke
6670 800 M
[ [(Arial) 200.0 0.0 true true 0 ( 960)]
] -66.7 MCshow
1.000 UL
LTb
0.00 0.00 0.00 C 0.500 UL
LTa
0.50 0.50 0.50 C 7429 1000 M
0 3799 V
stroke
1.000 UL
LTb
0.00 0.00 0.00 C 7429 1000 M
0 63 V
0 3736 R
0 -63 V
stroke
7429 800 M
[ [(Arial) 200.0 0.0 true true 0 ( 990)]
] -66.7 MCshow
1.000 UL
LTb
0.00 0.00 0.00 C 0.500 UL
LTa
0.50 0.50 0.50 C 8188 1000 M
0 3799 V
stroke
1.000 UL
LTb
0.00 0.00 0.00 C 8188 1000 M
0 63 V
0 3736 R
0 -63 V
stroke
8188 800 M
[ [(Arial) 200.0 0.0 true true 0 ( 1020)]
] -66.7 MCshow
1.000 UL
LTb
0.00 0.00 0.00 C 0.500 UL
LTa
0.50 0.50 0.50 C 8946 1000 M
0 3799 V
stroke
1.000 UL
LTb
0.00 0.00 0.00 C 8946 1000 M
0 63 V
0 3736 R
0 -63 V
stroke
8946 800 M
[ [(Arial) 200.0 0.0 true true 0 ( 1050)]
] -66.7 MCshow
1.000 UL
LTb
0.00 0.00 0.00 C 0.500 UL
LTa
0.50 0.50 0.50 C 9705 1000 M
0 3799 V
stroke
1.000 UL
LTb
0.00 0.00 0.00 C 9705 1000 M
0 63 V
0 3736 R
0 -63 V
stroke
9705 800 M
[ [(Arial) 200.0 0.0 true true 0 ( 1080)]
] -66.7 MCshow
1.000 UL
LTb
0.00 0.00 0.00 C 0.500 UL
LTa
0.50 0.50 0.50 C 10464 1000 M
0 3799 V
stroke
1.000 UL
LTb
0.00 0.00 0.00 C 10464 1000 M
0 63 V
0 3736 R
0 -63 V
stroke
10464 800 M
[ [(Arial) 200.0 0.0 true true 0 ( 1110)]
] -66.7 MCshow
1.000 UL
LTb
0.00 0.00 0.00 C 0.500 UL
LTa
0.50 0.50 0.50 C 11222 1000 M
0 3799 V
stroke
1.000 UL
LTb
0.00 0.00 0.00 C 11222 1000 M
0 63 V
0 3736 R
0 -63 V
stroke
11222 800 M
[ [(Arial) 200.0 0.0 true true 0 ( 1140)]
] -66.7 MCshow
1.000 UL
LTb
0.00 0.00 0.00 C 0.500 UL
LTa
0.50 0.50 0.50 C 11981 1000 M
0 3799 V
stroke
1.000 UL
LTb
0.00 0.00 0.00 C 11981 1000 M
0 63 V
0 3736 R
0 -63 V
stroke
11981 800 M
[ [(Arial) 200.0 0.0 true true 0 ( 1170)]
] -66.7 MCshow
1.000 UL
LTb
0.00 0.00 0.00 C 0.500 UL
LTa
0.50 0.50 0.50 C 12740 1000 M
0 3799 V
stroke
1.000 UL
LTb
0.00 0.00 0.00 C 12740 1000 M
0 63 V
0 3736 R
0 -63 V
stroke
12740 800 M
[ [(Arial) 200.0 0.0 true true 0 ( 1200)]
] -66.7 MCshow
1.000 UL
LTb
0.00 0.00 0.00 C 13119 1000 M
-63 0 V
stroke
13239 1000 M
[ [(Arial) 200.0 0.0 true true 0 ( 0)]
] -66.7 MLshow
1.000 UL
LTb
0.00 0.00 0.00 C 13119 1760 M
-63 0 V
stroke
13239 1760 M
[ [(Arial) 200.0 0.0 true true 0 ( 20)]
] -66.7 MLshow
1.000 UL
LTb
0.00 0.00 0.00 C 13119 2520 M
-63 0 V
stroke
13239 2520 M
[ [(Arial) 200.0 0.0 true true 0 ( 40)]
] -66.7 MLshow
1.000 UL
LTb
0.00 0.00 0.00 C 13119 3279 M
-63 0 V
stroke
13239 3279 M
[ [(Arial) 200.0 0.0 true true 0 ( 60)]
] -66.7 MLshow
1.000 UL
LTb
0.00 0.00 0.00 C 13119 4039 M
-63 0 V
stroke
13239 4039 M
[ [(Arial) 200.0 0.0 true true 0 ( 80)]
] -66.7 MLshow
1.000 UL
LTb
0.00 0.00 0.00 C 13119 4799 M
-63 0 V
stroke
13239 4799 M
[ [(Arial) 200.0 0.0 true true 0 ( 100)]
] -66.7 MLshow
1.000 UL
LTb
0.00 0.00 0.00 C 1.000 UL
LTB
0.00 0.00 0.00 C 980 4799 M
0 -3799 V
12139 0 V
0 3799 R
980 4799 M
1.000 UP
stroke
LTb
0.00 0.00 0.00 C LCb setrgbcolor
160 2899 M
currentpoint gsave translate -270 rotate 0 0 moveto
[ [(Arial) 200.0 0.0 true true 0 (File download time \(s\))]
] -66.7 MCshow
grestore
LTb
LCb setrgbcolor
13938 2899 M
currentpoint gsave translate -270 rotate 0 0 moveto
[ [(Arial) 200.0 0.0 true true 0 (Average UDP throughput [%])]
] -66.7 MCshow
grestore
LTb
LCb setrgbcolor
7049 500 M
[ [(Arial) 200.0 0.0 true true 0 (Local Backhaul traffic \(Mb/s\))]
] -66.7 MCshow
LTb
% Begin plot #1
1.000 UL
LTb
0.60 0.60 0.00 C LCb setrgbcolor
4930 333 M
[ [(Arial) 180.0 0.0 true true 0 (file download time    :   OLSR)]
] -60.0 MRshow
1.000 UL
LTb
0.60 0.60 0.00 C 5038 288 333 90 80 -45 0 PatternFill
5038 288 N
333 0 V
0 90 V
-333 0 V
0 -90 V
Z stroke
1.000 UL
LTb
0.60 0.60 0.00 C 1094 1521 152 324 80 -45 0 PatternFill
1170 1116 M
0 405 V
0 324 R
0 521 V
stroke
1094 1521 N
152 0 V
0 324 V
-152 0 V
0 -324 V
Z stroke
1094 2366 M
152 0 V
1094 1116 M
152 0 V
stroke
1852 1553 152 289 80 -45 0 PatternFill
1928 1116 M
0 437 V
0 289 R
0 515 V
stroke
1852 1553 N
152 0 V
0 289 V
-152 0 V
0 -289 V
Z stroke
1852 2357 M
152 0 V
1852 1116 M
152 0 V
stroke
2611 1595 152 342 80 -45 0 PatternFill
2687 1116 M
0 479 V
0 342 R
0 238 V
stroke
2611 1595 N
152 0 V
0 342 V
-152 0 V
0 -342 V
Z stroke
2611 2175 M
152 0 V
2611 1116 M
152 0 V
stroke
3370 1581 152 316 80 -45 0 PatternFill
3446 1116 M
0 465 V
0 316 R
0 205 V
stroke
3370 1581 N
152 0 V
0 316 V
-152 0 V
0 -316 V
Z stroke
3370 2102 M
152 0 V
3370 1116 M
152 0 V
stroke
4129 1526 152 359 80 -45 0 PatternFill
4205 1116 M
0 410 V
0 359 R
0 434 V
stroke
4129 1526 N
152 0 V
0 359 V
-152 0 V
0 -359 V
Z stroke
4129 2319 M
152 0 V
4129 1116 M
152 0 V
stroke
4887 1574 152 270 80 -45 0 PatternFill
4963 1116 M
0 458 V
0 270 R
0 199 V
stroke
4887 1574 N
152 0 V
0 270 V
-152 0 V
0 -270 V
Z stroke
4887 2043 M
152 0 V
4887 1116 M
152 0 V
stroke
5646 1595 152 317 80 -45 0 PatternFill
5722 1116 M
0 479 V
0 317 R
0 335 V
stroke
5646 1595 N
152 0 V
0 317 V
-152 0 V
0 -317 V
Z stroke
5646 2247 M
152 0 V
5646 1116 M
152 0 V
stroke
6405 1542 152 422 80 -45 0 PatternFill
6481 1116 M
0 426 V
0 422 R
0 327 V
stroke
6405 1542 N
152 0 V
0 422 V
-152 0 V
0 -422 V
Z stroke
6405 2291 M
152 0 V
6405 1116 M
152 0 V
stroke
7163 1560 152 350 80 -45 0 PatternFill
7239 1116 M
0 444 V
0 350 R
0 517 V
stroke
7163 1560 N
152 0 V
0 350 V
-152 0 V
0 -350 V
Z stroke
7163 2427 M
152 0 V
7163 1116 M
152 0 V
stroke
7922 1612 152 277 80 -45 0 PatternFill
7998 1116 M
0 496 V
0 277 R
0 301 V
stroke
7922 1612 N
152 0 V
0 277 V
-152 0 V
0 -277 V
Z stroke
7922 2190 M
152 0 V
7922 1116 M
152 0 V
stroke
8681 1602 152 359 80 -45 0 PatternFill
8757 1116 M
0 486 V
0 359 R
0 281 V
stroke
8681 1602 N
152 0 V
0 359 V
-152 0 V
0 -359 V
Z stroke
8681 2242 M
152 0 V
8681 1116 M
152 0 V
stroke
9439 1562 152 372 80 -45 0 PatternFill
9515 1116 M
0 446 V
0 372 R
0 530 V
stroke
9439 1562 N
152 0 V
0 372 V
-152 0 V
0 -372 V
Z stroke
9439 2464 M
152 0 V
9439 1116 M
152 0 V
stroke
10198 1613 152 289 80 -45 0 PatternFill
10274 1116 M
0 497 V
0 289 R
0 328 V
stroke
10198 1613 N
152 0 V
0 289 V
-152 0 V
0 -289 V
Z stroke
10198 2230 M
152 0 V
10198 1116 M
152 0 V
stroke
10957 1609 152 320 80 -45 0 PatternFill
11033 1116 M
0 493 V
0 320 R
0 328 V
stroke
10957 1609 N
152 0 V
0 320 V
-152 0 V
0 -320 V
Z stroke
10957 2257 M
152 0 V
10957 1116 M
152 0 V
stroke
11715 1563 152 296 80 -45 0 PatternFill
11791 1116 M
0 447 V
0 296 R
0 881 V
stroke
11715 1563 N
152 0 V
0 296 V
-152 0 V
0 -296 V
Z stroke
11715 2740 M
152 0 V
11715 1116 M
152 0 V
stroke
12474 1611 152 351 80 -45 0 PatternFill
12550 1116 M
0 495 V
0 351 R
0 435 V
stroke
12474 1611 N
152 0 V
0 351 V
-152 0 V
0 -351 V
Z stroke
12474 2397 M
152 0 V
12474 1116 M
152 0 V
% End plot #1
% Begin plot #2
stroke
LTb
LCb setrgbcolor

 /TransparentPatterns true def
1094 1718 152 0 40 30 0 PatternFill
1170 1718 M
stroke
1094 1718 N
152 0 V
-152 0 V
Z stroke
1094 1718 M
152 0 V
-152 0 R
152 0 V
stroke

 /TransparentPatterns true def
1852 1709 152 0 40 30 0 PatternFill
1928 1709 M
stroke
1852 1709 N
152 0 V
-152 0 V
Z stroke
1852 1709 M
152 0 V
-152 0 R
152 0 V
stroke

 /TransparentPatterns true def
2611 1752 152 0 40 30 0 PatternFill
2687 1752 M
stroke
2611 1752 N
152 0 V
-152 0 V
Z stroke
2611 1752 M
152 0 V
-152 0 R
152 0 V
stroke

 /TransparentPatterns true def
3370 1716 152 0 40 30 0 PatternFill
3446 1716 M
stroke
3370 1716 N
152 0 V
-152 0 V
Z stroke
3370 1716 M
152 0 V
-152 0 R
152 0 V
stroke

 /TransparentPatterns true def
4129 1703 152 0 40 30 0 PatternFill
4205 1703 M
stroke
4129 1703 N
152 0 V
-152 0 V
Z stroke
4129 1703 M
152 0 V
-152 0 R
152 0 V
stroke

 /TransparentPatterns true def
4887 1685 152 0 40 30 0 PatternFill
4963 1685 M
stroke
4887 1685 N
152 0 V
-152 0 V
Z stroke
4887 1685 M
152 0 V
-152 0 R
152 0 V
stroke

 /TransparentPatterns true def
5646 1727 152 0 40 30 0 PatternFill
5722 1727 M
stroke
5646 1727 N
152 0 V
-152 0 V
Z stroke
5646 1727 M
152 0 V
-152 0 R
152 0 V
stroke

 /TransparentPatterns true def
6405 1767 152 0 40 30 0 PatternFill
6481 1767 M
stroke
6405 1767 N
152 0 V
-152 0 V
Z stroke
6405 1767 M
152 0 V
-152 0 R
152 0 V
stroke

 /TransparentPatterns true def
7163 1731 152 0 40 30 0 PatternFill
7239 1731 M
stroke
7163 1731 N
152 0 V
-152 0 V
Z stroke
7163 1731 M
152 0 V
-152 0 R
152 0 V
stroke

 /TransparentPatterns true def
7922 1744 152 0 40 30 0 PatternFill
7998 1744 M
stroke
7922 1744 N
152 0 V
-152 0 V
Z stroke
7922 1744 M
152 0 V
-152 0 R
152 0 V
stroke

 /TransparentPatterns true def
8681 1735 152 0 40 30 0 PatternFill
8757 1735 M
stroke
8681 1735 N
152 0 V
-152 0 V
Z stroke
8681 1735 M
152 0 V
-152 0 R
152 0 V
stroke

 /TransparentPatterns true def
9439 1756 152 0 40 30 0 PatternFill
9515 1756 M
stroke
9439 1756 N
152 0 V
-152 0 V
Z stroke
9439 1756 M
152 0 V
-152 0 R
152 0 V
stroke

 /TransparentPatterns true def
10198 1745 152 0 40 30 0 PatternFill
10274 1745 M
stroke
10198 1745 N
152 0 V
-152 0 V
Z stroke
10198 1745 M
152 0 V
-152 0 R
152 0 V
stroke

 /TransparentPatterns true def
10957 1760 152 0 40 30 0 PatternFill
11033 1760 M
stroke
10957 1760 N
152 0 V
-152 0 V
Z stroke
10957 1760 M
152 0 V
-152 0 R
152 0 V
stroke

 /TransparentPatterns true def
11715 1733 152 0 40 30 0 PatternFill
11791 1733 M
stroke
11715 1733 N
152 0 V
-152 0 V
Z stroke
11715 1733 M
152 0 V
-152 0 R
152 0 V
stroke

 /TransparentPatterns true def
12474 1790 152 0 40 30 0 PatternFill
12550 1790 M
stroke
12474 1790 N
152 0 V
-152 0 V
Z stroke
12474 1790 M
152 0 V
-152 0 R
152 0 V
% End plot #2
% Begin plot #3
2.000 UP
stroke
LTa
0.60 0.60 0.00 C LCb setrgbcolor
4930 153 M
[ [(Arial) 180.0 0.0 true true 0 (avg. throughput :         )]
] -60.0 MRshow
2.000 UP
1.000 UL
LTa
0.60 0.60 0.00 C 5038 153 M
333 0 V
980 4792 M
190 -1 V
758 1 V
759 -3 V
759 -1 V
758 3 V
759 -2 V
759 1 V
758 -997 V
759 74 V
759 -129 V
759 28 V
758 122 V
759 -151 V
759 28 V
758 269 V
759 -168 V
1170 4791 Box
1928 4792 Box
2687 4789 Box
3446 4788 Box
4204 4791 Box
4963 4789 Box
5722 4790 Box
6480 3793 Box
7239 3867 Box
7998 3738 Box
8757 3766 Box
9515 3888 Box
10274 3737 Box
11033 3765 Box
11791 4034 Box
12550 3866 Box
5204 153 Box
% End plot #3
% Begin plot #4
1.000 UL
LTb
0.00 0.00 0.63 C LCb setrgbcolor
8071 333 M
[ [(Arial) 180.0 0.0 true true 0 (per-packet)]
] -60.0 MRshow
1.000 UL
LTb
0.00 0.00 0.63 C 8179 288 333 90 80 45 0 PatternFill
8179 288 N
333 0 V
0 90 V
-333 0 V
0 -90 V
Z stroke
1.000 UL
LTb
0.00 0.00 0.63 C 1283 1135 152 2237 80 45 0 PatternFill
1359 1077 M
0 58 V
0 2237 R
0 375 V
stroke
1283 1135 N
152 0 V
0 2237 V
-152 0 V
0 -2237 V
Z stroke
1283 3747 M
152 0 V
1283 1077 M
152 0 V
stroke
2042 1132 152 2224 80 45 0 PatternFill
2118 1084 M
0 48 V
0 2224 R
0 284 V
stroke
2042 1132 N
152 0 V
0 2224 V
-152 0 V
0 -2224 V
Z stroke
2042 3640 M
152 0 V
2042 1084 M
152 0 V
stroke
2801 1193 152 2239 80 45 0 PatternFill
2877 1132 M
0 61 V
0 2239 R
0 415 V
stroke
2801 1193 N
152 0 V
0 2239 V
-152 0 V
0 -2239 V
Z stroke
2801 3847 M
152 0 V
2801 1132 M
152 0 V
stroke
3560 1136 152 2166 80 45 0 PatternFill
3636 1095 M
0 41 V
0 2166 R
0 607 V
stroke
3560 1136 N
152 0 V
0 2166 V
-152 0 V
0 -2166 V
Z stroke
3560 3909 M
152 0 V
3560 1095 M
152 0 V
stroke
4318 1180 152 2192 80 45 0 PatternFill
4394 1112 M
0 68 V
0 2192 R
0 773 V
stroke
4318 1180 N
152 0 V
0 2192 V
-152 0 V
0 -2192 V
Z stroke
4318 4145 M
152 0 V
4318 1112 M
152 0 V
stroke
5077 1173 152 2364 80 45 0 PatternFill
5153 1102 M
0 71 V
0 2364 R
0 480 V
stroke
5077 1173 N
152 0 V
0 2364 V
-152 0 V
0 -2364 V
Z stroke
5077 4017 M
152 0 V
5077 1102 M
152 0 V
stroke
5836 1143 152 2226 80 45 0 PatternFill
5912 1115 M
0 28 V
0 2226 R
0 522 V
stroke
5836 1143 N
152 0 V
0 2226 V
-152 0 V
0 -2226 V
Z stroke
5836 3891 M
152 0 V
5836 1115 M
152 0 V
stroke
6594 1153 152 2360 80 45 0 PatternFill
6670 1119 M
0 34 V
0 2360 R
0 99 V
stroke
6594 1153 N
152 0 V
0 2360 V
-152 0 V
0 -2360 V
Z stroke
6594 3612 M
152 0 V
6594 1119 M
152 0 V
stroke
7353 1155 152 2310 80 45 0 PatternFill
7429 1107 M
0 48 V
0 2310 R
0 364 V
stroke
7353 1155 N
152 0 V
0 2310 V
-152 0 V
0 -2310 V
Z stroke
7353 3829 M
152 0 V
7353 1107 M
152 0 V
stroke
8112 1157 152 2266 80 45 0 PatternFill
8188 1099 M
0 58 V
0 2266 R
0 467 V
stroke
8112 1157 N
152 0 V
0 2266 V
-152 0 V
0 -2266 V
Z stroke
8112 3890 M
152 0 V
8112 1099 M
152 0 V
stroke
8870 1173 152 2104 80 45 0 PatternFill
8946 1092 M
0 81 V
0 2104 R
0 585 V
stroke
8870 1173 N
152 0 V
0 2104 V
-152 0 V
0 -2104 V
Z stroke
8870 3862 M
152 0 V
8870 1092 M
152 0 V
stroke
9629 1179 152 2284 80 45 0 PatternFill
9705 1098 M
0 81 V
0 2284 R
0 474 V
stroke
9629 1179 N
152 0 V
0 2284 V
-152 0 V
0 -2284 V
Z stroke
9629 3937 M
152 0 V
9629 1098 M
152 0 V
stroke
10388 1183 152 2278 80 45 0 PatternFill
10464 1098 M
0 85 V
0 2278 R
0 457 V
stroke
10388 1183 N
152 0 V
0 2278 V
-152 0 V
0 -2278 V
Z stroke
10388 3918 M
152 0 V
10388 1098 M
152 0 V
stroke
11146 1156 152 2283 80 45 0 PatternFill
11222 1103 M
0 53 V
0 2283 R
0 527 V
stroke
11146 1156 N
152 0 V
0 2283 V
-152 0 V
0 -2283 V
Z stroke
11146 3966 M
152 0 V
11146 1103 M
152 0 V
stroke
11905 1210 152 2191 80 45 0 PatternFill
11981 1103 M
0 107 V
0 2191 R
0 257 V
stroke
11905 1210 N
152 0 V
0 2191 V
-152 0 V
0 -2191 V
Z stroke
11905 3658 M
152 0 V
11905 1103 M
152 0 V
stroke
12664 1207 152 2025 80 45 0 PatternFill
12740 1101 M
0 106 V
0 2025 R
0 580 V
stroke
12664 1207 N
152 0 V
0 2025 V
-152 0 V
0 -2025 V
Z stroke
12664 3812 M
152 0 V
12664 1101 M
152 0 V
% End plot #4
% Begin plot #5
stroke
LTb
LCb setrgbcolor

 /TransparentPatterns true def
1283 1967 152 0 80 -45 0 PatternFill
1359 1967 M
stroke
1283 1967 N
152 0 V
-152 0 V
Z stroke
1283 1967 M
152 0 V
-152 0 R
152 0 V
stroke

 /TransparentPatterns true def
2042 2012 152 0 80 -45 0 PatternFill
2118 2012 M
stroke
2042 2012 N
152 0 V
-152 0 V
Z stroke
2042 2012 M
152 0 V
-152 0 R
152 0 V
stroke

 /TransparentPatterns true def
2801 2031 152 0 80 -45 0 PatternFill
2877 2031 M
stroke
2801 2031 N
152 0 V
-152 0 V
Z stroke
2801 2031 M
152 0 V
-152 0 R
152 0 V
stroke

 /TransparentPatterns true def
3560 2000 152 0 80 -45 0 PatternFill
3636 2000 M
stroke
3560 2000 N
152 0 V
-152 0 V
Z stroke
3560 2000 M
152 0 V
-152 0 R
152 0 V
stroke

 /TransparentPatterns true def
4318 2015 152 0 80 -45 0 PatternFill
4394 2015 M
stroke
4318 2015 N
152 0 V
-152 0 V
Z stroke
4318 2015 M
152 0 V
-152 0 R
152 0 V
stroke

 /TransparentPatterns true def
5077 2049 152 0 80 -45 0 PatternFill
5153 2049 M
stroke
5077 2049 N
152 0 V
-152 0 V
Z stroke
5077 2049 M
152 0 V
-152 0 R
152 0 V
stroke

 /TransparentPatterns true def
5836 2026 152 0 80 -45 0 PatternFill
5912 2026 M
stroke
5836 2026 N
152 0 V
-152 0 V
Z stroke
5836 2026 M
152 0 V
-152 0 R
152 0 V
stroke

 /TransparentPatterns true def
6594 1993 152 0 80 -45 0 PatternFill
6670 1993 M
stroke
6594 1993 N
152 0 V
-152 0 V
Z stroke
6594 1993 M
152 0 V
-152 0 R
152 0 V
stroke

 /TransparentPatterns true def
7353 2039 152 0 80 -45 0 PatternFill
7429 2039 M
stroke
7353 2039 N
152 0 V
-152 0 V
Z stroke
7353 2039 M
152 0 V
-152 0 R
152 0 V
stroke

 /TransparentPatterns true def
8112 2057 152 0 80 -45 0 PatternFill
8188 2057 M
stroke
8112 2057 N
152 0 V
-152 0 V
Z stroke
8112 2057 M
152 0 V
-152 0 R
152 0 V
stroke

 /TransparentPatterns true def
8870 2009 152 0 80 -45 0 PatternFill
8946 2009 M
stroke
8870 2009 N
152 0 V
-152 0 V
Z stroke
8870 2009 M
152 0 V
-152 0 R
152 0 V
stroke

 /TransparentPatterns true def
9629 2071 152 0 80 -45 0 PatternFill
9705 2071 M
stroke
9629 2071 N
152 0 V
-152 0 V
Z stroke
9629 2071 M
152 0 V
-152 0 R
152 0 V
stroke

 /TransparentPatterns true def
10388 2025 152 0 80 -45 0 PatternFill
10464 2025 M
stroke
10388 2025 N
152 0 V
-152 0 V
Z stroke
10388 2025 M
152 0 V
-152 0 R
152 0 V
stroke

 /TransparentPatterns true def
11146 2063 152 0 80 -45 0 PatternFill
11222 2063 M
stroke
11146 2063 N
152 0 V
-152 0 V
Z stroke
11146 2063 M
152 0 V
-152 0 R
152 0 V
stroke

 /TransparentPatterns true def
11905 2005 152 0 80 -45 0 PatternFill
11981 2005 M
stroke
11905 2005 N
152 0 V
-152 0 V
Z stroke
11905 2005 M
152 0 V
-152 0 R
152 0 V
stroke

 /TransparentPatterns true def
12664 2039 152 0 80 -45 0 PatternFill
12740 2039 M
stroke
12664 2039 N
152 0 V
-152 0 V
Z stroke
12664 2039 M
152 0 V
-152 0 R
152 0 V
% End plot #5
% Begin plot #6
2.000 UP
stroke
LTa
0.00 0.00 0.63 C LCb setrgbcolor
8071 153 M
[ [(Arial) 180.0 0.0 true true 0 ( )]
] -60.0 MRshow
2.000 UP
1.000 UL
LTa
0.00 0.00 0.63 C 8179 153 M
333 0 V
980 4798 M
379 -1 V
759 1 V
759 0 V
758 0 V
759 0 V
759 0 V
758 0 V
759 -208 V
759 13 V
759 5 V
758 -2 V
759 7 V
759 -2 V
758 2 V
759 -21 V
759 11 V
1359 4797 Circle
2118 4798 Circle
2877 4798 Circle
3635 4798 Circle
4394 4798 Circle
5153 4798 Circle
5911 4798 Circle
6670 4590 Circle
7429 4603 Circle
8188 4608 Circle
8946 4606 Circle
9705 4613 Circle
10464 4611 Circle
11222 4613 Circle
11981 4592 Circle
12740 4603 Circle
8345 153 Circle
% End plot #6
% Begin plot #7
1.000 UL
LTb
0.00 0.38 0.82 C LCb setrgbcolor
11212 333 M
[ [(Arial) 180.0 0.0 true true 0 (per-flow)]
] -60.0 MRshow
1.000 UL
LTb
0.00 0.38 0.82 C 11320 288 333 90 40 30 0 PatternFill
11320 288 N
333 0 V
0 90 V
-333 0 V
0 -90 V
Z stroke
1.000 UL
LTb
0.00 0.38 0.82 C 1473 1196 152 159 40 30 0 PatternFill
1549 1174 M
0 22 V
0 159 R
0 309 V
stroke
1473 1196 N
152 0 V
0 159 V
-152 0 V
0 -159 V
Z stroke
1473 1664 M
152 0 V
1473 1174 M
152 0 V
stroke
2232 1148 152 125 40 30 0 PatternFill
2308 1102 M
0 46 V
0 125 R
0 383 V
stroke
2232 1148 N
152 0 V
0 125 V
-152 0 V
0 -125 V
Z stroke
2232 1656 M
152 0 V
2232 1102 M
152 0 V
stroke
2991 1169 152 205 40 30 0 PatternFill
3067 1121 M
0 48 V
0 205 R
0 159 V
stroke
2991 1169 N
152 0 V
0 205 V
-152 0 V
0 -205 V
Z stroke
2991 1533 M
152 0 V
2991 1121 M
152 0 V
stroke
3749 1165 152 158 40 30 0 PatternFill
3825 1108 M
0 57 V
0 158 R
0 706 V
stroke
3749 1165 N
152 0 V
0 158 V
-152 0 V
0 -158 V
Z stroke
3749 2029 M
152 0 V
3749 1108 M
152 0 V
stroke
4508 1172 152 182 40 30 0 PatternFill
4584 1106 M
0 66 V
0 182 R
0 364 V
stroke
4508 1172 N
152 0 V
0 182 V
-152 0 V
0 -182 V
Z stroke
4508 1718 M
152 0 V
4508 1106 M
152 0 V
stroke
5267 1176 152 213 40 30 0 PatternFill
5343 1100 M
0 76 V
0 213 R
0 593 V
stroke
5267 1176 N
152 0 V
0 213 V
-152 0 V
0 -213 V
Z stroke
5267 1982 M
152 0 V
5267 1100 M
152 0 V
stroke
6025 1158 152 223 40 30 0 PatternFill
6101 1125 M
0 33 V
0 223 R
0 366 V
stroke
6025 1158 N
152 0 V
0 223 V
-152 0 V
0 -223 V
Z stroke
6025 1747 M
152 0 V
6025 1125 M
152 0 V
stroke
6784 1191 152 263 40 30 0 PatternFill
6860 1135 M
0 56 V
0 263 R
0 130 V
stroke
6784 1191 N
152 0 V
0 263 V
-152 0 V
0 -263 V
Z stroke
6784 1584 M
152 0 V
6784 1135 M
152 0 V
stroke
7543 1169 152 207 40 30 0 PatternFill
7619 1102 M
0 67 V
0 207 R
0 174 V
stroke
7543 1169 N
152 0 V
0 207 V
-152 0 V
0 -207 V
Z stroke
7543 1550 M
152 0 V
7543 1102 M
152 0 V
stroke
8301 1145 152 243 40 30 0 PatternFill
8377 1128 M
0 17 V
0 243 R
0 130 V
stroke
8301 1145 N
152 0 V
0 243 V
-152 0 V
0 -243 V
Z stroke
8301 1518 M
152 0 V
8301 1128 M
152 0 V
stroke
9060 1173 152 279 40 30 0 PatternFill
9136 1111 M
0 62 V
0 279 R
0 841 V
stroke
9060 1173 N
152 0 V
0 279 V
-152 0 V
0 -279 V
Z stroke
9060 2293 M
152 0 V
9060 1111 M
152 0 V
stroke
9819 1175 152 290 40 30 0 PatternFill
9895 1104 M
0 71 V
0 290 R
0 264 V
stroke
9819 1175 N
152 0 V
0 290 V
-152 0 V
0 -290 V
Z stroke
9819 1729 M
152 0 V
9819 1104 M
152 0 V
stroke
10577 1192 152 225 40 30 0 PatternFill
10653 1103 M
0 89 V
0 225 R
0 614 V
stroke
10577 1192 N
152 0 V
0 225 V
-152 0 V
0 -225 V
Z stroke
10577 2031 M
152 0 V
-152 -928 R
152 0 V
stroke
11336 1199 152 208 40 30 0 PatternFill
11412 1146 M
0 53 V
0 208 R
0 173 V
stroke
11336 1199 N
152 0 V
0 208 V
-152 0 V
0 -208 V
Z stroke
11336 1580 M
152 0 V
-152 -434 R
152 0 V
stroke
12095 1172 152 296 40 30 0 PatternFill
12171 1130 M
0 42 V
0 296 R
0 174 V
stroke
12095 1172 N
152 0 V
0 296 V
-152 0 V
0 -296 V
Z stroke
12095 1642 M
152 0 V
-152 -512 R
152 0 V
stroke
12853 1186 152 278 40 30 0 PatternFill
12929 1121 M
0 65 V
0 278 R
0 181 V
stroke
12853 1186 N
152 0 V
0 278 V
-152 0 V
0 -278 V
Z stroke
12853 1645 M
152 0 V
-152 -524 R
152 0 V
% End plot #7
% Begin plot #8
stroke
LTb
LCb setrgbcolor

 /TransparentPatterns true def
1473 1287 152 0 40 -30 0 PatternFill
1549 1287 M
stroke
1473 1287 N
152 0 V
-152 0 V
Z stroke
1473 1287 M
152 0 V
-152 0 R
152 0 V
stroke

 /TransparentPatterns true def
2232 1229 152 0 40 -30 0 PatternFill
2308 1229 M
stroke
2232 1229 N
152 0 V
-152 0 V
Z stroke
2232 1229 M
152 0 V
-152 0 R
152 0 V
stroke

 /TransparentPatterns true def
2991 1287 152 0 40 -30 0 PatternFill
3067 1287 M
stroke
2991 1287 N
152 0 V
-152 0 V
Z stroke
2991 1287 M
152 0 V
-152 0 R
152 0 V
stroke

 /TransparentPatterns true def
3749 1291 152 0 40 -30 0 PatternFill
3825 1291 M
stroke
3749 1291 N
152 0 V
-152 0 V
Z stroke
3749 1291 M
152 0 V
-152 0 R
152 0 V
stroke

 /TransparentPatterns true def
4508 1268 152 0 40 -30 0 PatternFill
4584 1268 M
stroke
4508 1268 N
152 0 V
-152 0 V
Z stroke
4508 1268 M
152 0 V
-152 0 R
152 0 V
stroke

 /TransparentPatterns true def
5267 1302 152 0 40 -30 0 PatternFill
5343 1302 M
stroke
5267 1302 N
152 0 V
-152 0 V
Z stroke
5267 1302 M
152 0 V
-152 0 R
152 0 V
stroke

 /TransparentPatterns true def
6025 1295 152 0 40 -30 0 PatternFill
6101 1295 M
stroke
6025 1295 N
152 0 V
-152 0 V
Z stroke
6025 1295 M
152 0 V
-152 0 R
152 0 V
stroke

 /TransparentPatterns true def
6784 1331 152 0 40 -30 0 PatternFill
6860 1331 M
stroke
6784 1331 N
152 0 V
-152 0 V
Z stroke
6784 1331 M
152 0 V
-152 0 R
152 0 V
stroke

 /TransparentPatterns true def
7543 1288 152 0 40 -30 0 PatternFill
7619 1288 M
stroke
7543 1288 N
152 0 V
-152 0 V
Z stroke
7543 1288 M
152 0 V
-152 0 R
152 0 V
stroke

 /TransparentPatterns true def
8301 1279 152 0 40 -30 0 PatternFill
8377 1279 M
stroke
8301 1279 N
152 0 V
-152 0 V
Z stroke
8301 1279 M
152 0 V
-152 0 R
152 0 V
stroke

 /TransparentPatterns true def
9060 1337 152 0 40 -30 0 PatternFill
9136 1337 M
stroke
9060 1337 N
152 0 V
-152 0 V
Z stroke
9060 1337 M
152 0 V
-152 0 R
152 0 V
stroke

 /TransparentPatterns true def
9819 1329 152 0 40 -30 0 PatternFill
9895 1329 M
stroke
9819 1329 N
152 0 V
-152 0 V
Z stroke
9819 1329 M
152 0 V
-152 0 R
152 0 V
stroke

 /TransparentPatterns true def
10577 1326 152 0 40 -30 0 PatternFill
10653 1326 M
stroke
10577 1326 N
152 0 V
-152 0 V
Z stroke
10577 1326 M
152 0 V
-152 0 R
152 0 V
stroke

 /TransparentPatterns true def
11336 1310 152 0 40 -30 0 PatternFill
11412 1310 M
stroke
11336 1310 N
152 0 V
-152 0 V
Z stroke
11336 1310 M
152 0 V
-152 0 R
152 0 V
stroke

 /TransparentPatterns true def
12095 1329 152 0 40 -30 0 PatternFill
12171 1329 M
stroke
12095 1329 N
152 0 V
-152 0 V
Z stroke
12095 1329 M
152 0 V
-152 0 R
152 0 V
stroke

 /TransparentPatterns true def
12853 1323 152 0 40 -30 0 PatternFill
12929 1323 M
stroke
12853 1323 N
152 0 V
-152 0 V
Z stroke
12853 1323 M
152 0 V
-152 0 R
152 0 V
% End plot #8
% Begin plot #9
2.000 UP
stroke
LTa
0.00 0.38 0.82 C LCb setrgbcolor
11212 153 M
[ [(Arial) 180.0 0.0 true true 0 ( )]
] -60.0 MRshow
2.000 UP
1.000 UL
LTa
0.00 0.38 0.82 C 11320 153 M
333 0 V
980 4795 M
569 -1 V
759 1 V
758 0 V
759 1 V
759 -1 V
758 1 V
759 -1 V
759 -759 V
759 -41 V
758 -44 V
759 446 V
759 -263 V
758 172 V
759 -272 V
759 37 V
758 0 V
1549 4794 TriU
2308 4795 TriU
3066 4795 TriU
3825 4796 TriU
4584 4795 TriU
5342 4796 TriU
6101 4795 TriU
6860 4036 TriU
7619 3995 TriU
8377 3951 TriU
9136 4397 TriU
9895 4134 TriU
10653 4306 TriU
11412 4034 TriU
12171 4071 TriU
12929 4071 TriU
11486 153 TriU
% End plot #9
2.000 UL
LTb
LCb setrgbcolor
1.000 UP
1.000 UL
LTb
0.00 0.00 0.00 C stroke
grestore
end
showpage
%%Trailer
%%DocumentFonts: Arial
